/* XPM */
static const char *pomtray_xpm[] = {
/* columns rows colors chars-per-pixel */
"32 32 5 1",
". c Black",
"X c Red",
", c Black",
"o c #C00000",
"  c None",
/* pixels */
"                                ",
"             .....              ",
"          ...XXXXX...           ",
"        ..XXXXXXXXXXX..         ",
"       .XXXXXXXXXXXXXXX.        ",
"     ..XXXXXXXXXXXXXXXXX..      ",
"     .XXXXXXXXXXXXXXXXXXXX.     ",
"    .XXXXXX,XXXXXXX,XXXXXX.     ",
"   .XXXXXX,X.XXXXX.X,XXXXXX.    ",
"   .XXXXX,XXX,XXX,XXX,XXXXXX.   ",
"  .XXXXX,XXXXXXXXXXXXX,XXXXX.   ",
"  .XXXXXXXX,XXXXXXX,XXXXXXXX.   ",
"  .XXXXXXXX,XXXXXXX,XXXXXXXX.   ",
" .XXXXXXXXXXXXXXXXXXXXXXXXXXX.  ",
" .XXXXXXXXXXXXXXXXXXXXXXXXXXX.  ",
" .XXXXXXXXXXXXXXXXXXXXXXXXXXX.  ",
" .XXXXXXXXXXXXXXXXXXXXXXXXXXX.  ",
" .XXXXXXX,XXXXXXXXXXX,XXXXXXX.  ",
"  .XXXXXX,,,XXXXXXX,,,XXXXXX.   ",
"  .XXXXXX,oo,,XXX,,oo,XXXXXX.   ",
"  .XXXXXXX,ooo,,,ooo,XXXXXXX.   ",
"   .XXXXXXX,ooooooo,XXXXXXXX.   ",
"   .XXXXXXXX,,ooo,,XXXXXXXX.    ",
"    .XXXXXXXXX,,,XXXXXXXXX.     ",
"     .XXXXXXXXXXXXXXXXXXXX.     ",
"     ..XXXXXXXXXXXXXXXXX..      ",
"       .XXXXXXXXXXXXXXX.        ",
"        ..XXXXXXXXXXX..         ",
"          ...XXXXX...           ",
"             .....              ",
"                                ",
"                                "
};
